{
   "count":12,
   "next":"http://cms-api.nunki.co/dashboard_api/v1/events/A52R2/medias/?limit=11&page=2&published=true",
   "previous":null,
   "results":[
      {
         "id":20289481,
         "eventId":"A52R2",
         "feedId":2017,
         "published":true,
         "type":"video",
         "platform":"instagram",
         "date":"2015-06-07T16:40:25Z",
         "author":"imdiane",
         "authorLink":"http://instagram.com/imdiane",
         "authorImage":"https://instagramimages-a.akamaihd.net/profiles/profile_30618540_75sq_1353369252.jpg",
         "thumbImageLink":"https://scontent.cdninstagram.com/hphotos-xaf1/t51.2885-15/e15/11358159_1595184140762440_1417422882_n.jpg",
         "platformMediaLink":"https://instagram.com/p/3oo3fGt1b-/",
         "platformMediaId":"1002230651920275198_30618540",
         "mediaLink":"https://scontent.cdninstagram.com/hphotos-xaf1/t50.2886-16/11394660_519022001584609_1553580712_s.mp4",
         "description":"https://instagramimages-a.akamaihd.net/profiles/profile_30618540_75sq_1353369252.jpg"
      },
      {
         "id":20289395,
         "eventId":"A52R2",
         "feedId":2017,
         "published":true,
         "type":"image",
         "platform":"twitter",
         "date":"2015-06-07T16:39:57Z",
         "author":"andaluzijskipas",
         "authorLink":"https://twitter.com/andaluzijskipas/",
         "authorImage":"http://pbs.twimg.com/profile_images/435573354490101760/J10J5T06_normal.jpeg",
         "thumbImageLink":"http://pbs.twimg.com/media/CG6V5bEW0AAGSpg.jpg",
         "platformMediaLink":"https://twitter.com/andaluzijskipas/status/607587813618524160",
         "platformMediaId":"607587813618524160",
         "mediaLink":"http://pbs.twimg.com/media/CG6V5bEW0AAGSpg.jpg",
         "description":"http://pbs.twimg.com/profile_images/435573354490101760/J10J5T06_normal.jpeg"
      },
      {
         "id":20289483,
         "eventId":"A52R2",
         "feedId":2017,
         "published":true,
         "type":"image",
         "platform":"instagram",
         "date":"2015-06-07T16:39:57Z",
         "author":"aure29100",
         "authorLink":"http://instagram.com/aure29100",
         "authorImage":"https://igcdn-photos-b-a.akamaihd.net/hphotos-ak-xap1/t51.2885-19/11205801_104532229879417_1664575071_a.jpg",
         "thumbImageLink":"https://scontent.cdninstagram.com/hphotos-xfa1/t51.2885-15/e15/11381462_916381165072463_771338475_n.jpg",
         "platformMediaLink":"https://instagram.com/p/3oo0E7S2oe/",
         "platformMediaId":"1002230417652935198_1944049825",
         "mediaLink":"https://scontent.cdninstagram.com/hphotos-xfa1/t51.2885-15/e15/11381462_916381165072463_771338475_n.jpg",
         "description":"https://igcdn-photos-b-a.akamaihd.net/hphotos-ak-xap1/t51.2885-19/11205801_104532229879417_1664575071_a.jpg"
      },
      {
         "id":20363704,
         "eventId":"A52R2",
         "feedId":2017,
         "published":true,
         "type":"image",
         "platform":"instagram",
         "date":"2015-06-07T16:03:50Z",
         "author":"mkmarkos",
         "authorLink":"http://instagram.com/mkmarkos",
         "authorImage":"https://igcdn-photos-g-a.akamaihd.net/hphotos-ak-xfp1/t51.2885-19/10735219_564422610356526_35093758_a.jpg",
         "thumbImageLink":"https://scontent.cdninstagram.com/hphotos-xaf1/t51.2885-15/e15/11352088_396600280531653_1729214431_n.jpg",
         "platformMediaLink":"https://instagram.com/p/3okrhvhC1U/",
         "platformMediaId":"1002212237932506452_198195266",
         "mediaLink":"https://scontent.cdninstagram.com/hphotos-xaf1/t51.2885-15/e15/11352088_396600280531653_1729214431_n.jpg",
         "description":"https://igcdn-photos-g-a.akamaihd.net/hphotos-ak-xfp1/t51.2885-19/10735219_564422610356526_35093758_a.jpg"
      },
      {
         "id":20363711,
         "eventId":"A52R2",
         "feedId":2017,
         "published":true,
         "type":"image",
         "platform":"instagram",
         "date":"2015-06-07T15:37:40Z",
         "author":"frednte77",
         "authorLink":"http://instagram.com/frednte77",
         "authorImage":"https://igcdn-photos-c-a.akamaihd.net/hphotos-ak-xaf1/t51.2885-19/11267968_962573543783490_409645238_a.jpg",
         "thumbImageLink":"https://scontent.cdninstagram.com/hphotos-xaf1/t51.2885-15/e15/11287842_843798845705696_879462281_n.jpg",
         "platformMediaLink":"https://instagram.com/p/3ohr3Co5cL/",
         "platformMediaId":"1002199066662377227_24437276",
         "mediaLink":"https://scontent.cdninstagram.com/hphotos-xaf1/t51.2885-15/e15/11287842_843798845705696_879462281_n.jpg",
         "description":"https://igcdn-photos-c-a.akamaihd.net/hphotos-ak-xaf1/t51.2885-19/11267968_962573543783490_409645238_a.jpg"
      },
      {
         "id":20363722,
         "eventId":"A52R2",
         "feedId":2017,
         "published":true,
         "type":"image",
         "platform":"instagram",
         "date":"2015-06-07T14:53:32Z",
         "author":"notesfromanomad",
         "authorLink":"http://instagram.com/notesfromanomad",
         "authorImage":"https://instagramimages-a.akamaihd.net/profiles/profile_196832483_75sq_1350399228.jpg",
         "thumbImageLink":"https://scontent.cdninstagram.com/hphotos-xaf1/t51.2885-15/e15/11311147_486203148196388_524135761_n.jpg",
         "platformMediaLink":"https://instagram.com/p/3ocoo0JtKu/",
         "platformMediaId":"1002176854995948206_196832483",
         "mediaLink":"https://scontent.cdninstagram.com/hphotos-xaf1/t51.2885-15/e15/11311147_486203148196388_524135761_n.jpg",
         "description":"https://instagramimages-a.akamaihd.net/profiles/profile_196832483_75sq_1350399228.jpg"
      },
      {
         "id":20363789,
         "eventId":"A52R2",
         "feedId":2017,
         "published":true,
         "type":"image",
         "platform":"instagram",
         "date":"2015-06-07T14:09:03Z",
         "author":"julcafetao",
         "authorLink":"http://instagram.com/julcafetao",
         "authorImage":"https://instagramimages-a.akamaihd.net/profiles/profile_1305905927_75sq_1399148315.jpg",
         "thumbImageLink":"https://scontent.cdninstagram.com/hphotos-xfa1/t51.2885-15/e15/11381783_1082493241778248_152785715_n.jpg",
         "platformMediaLink":"https://instagram.com/p/3oXiyoDoJW/",
         "platformMediaId":"1002154462981030486_1305905927",
         "mediaLink":"https://scontent.cdninstagram.com/hphotos-xfa1/t51.2885-15/e15/11381783_1082493241778248_152785715_n.jpg",
         "description":"https://instagramimages-a.akamaihd.net/profiles/profile_1305905927_75sq_1399148315.jpg"
      },
      {
         "id":20363814,
         "eventId":"A52R2",
         "feedId":2017,
         "published":true,
         "type":"image",
         "platform":"instagram",
         "date":"2015-06-07T13:47:36Z",
         "author":"libellula_michelle",
         "authorLink":"http://instagram.com/libellula_michelle",
         "authorImage":"https://instagramimages-a.akamaihd.net/profiles/profile_26921425_75sq_1398915168.jpg",
         "thumbImageLink":"https://scontent.cdninstagram.com/hphotos-xfa1/t51.2885-15/e15/11274335_122986914699753_1337061451_n.jpg",
         "platformMediaLink":"https://instagram.com/p/3oVFxiFkp2/",
         "platformMediaId":"1002143672849287798_26921425",
         "mediaLink":"https://scontent.cdninstagram.com/hphotos-xfa1/t51.2885-15/e15/11274335_122986914699753_1337061451_n.jpg",
         "description":"https://instagramimages-a.akamaihd.net/profiles/profile_26921425_75sq_1398915168.jpg"
      },
      {
         "id":20363838,
         "eventId":"A52R2",
         "feedId":2017,
         "published":true,
         "type":"image",
         "platform":"instagram",
         "date":"2015-06-07T13:35:02Z",
         "author":"robsteckley",
         "authorLink":"http://instagram.com/robsteckley",
         "authorImage":"https://instagramimages-a.akamaihd.net/profiles/profile_50072248_75sq_1335831844.jpg",
         "thumbImageLink":"https://scontent.cdninstagram.com/hphotos-xaf1/t51.2885-15/e15/11358979_1579077245696856_1737248509_n.jpg",
         "platformMediaLink":"https://instagram.com/p/3oTpoRoyS3/",
         "platformMediaId":"1002137340717769911_50072248",
         "mediaLink":"https://scontent.cdninstagram.com/hphotos-xaf1/t51.2885-15/e15/11358979_1579077245696856_1737248509_n.jpg",
         "description":"https://instagramimages-a.akamaihd.net/profiles/profile_50072248_75sq_1335831844.jpg"
      },
      {
         "id":20369713,
         "eventId":"A52R2",
         "feedId":2017,
         "published":true,
         "type":"image",
         "platform":"instagram",
         "date":"2015-06-07T11:45:07Z",
         "author":"dilanvanderaar",
         "authorLink":"http://instagram.com/dilanvanderaar",
         "authorImage":"https://igcdn-photos-f-a.akamaihd.net/hphotos-ak-xaf1/t51.2885-19/11236209_1572730709661197_1916407864_a.jpg",
         "thumbImageLink":"https://scontent.cdninstagram.com/hphotos-xfa1/t51.2885-15/e15/11419001_1617064188552639_1753759155_n.jpg",
         "platformMediaLink":"https://instagram.com/p/3oHEleOOk8/",
         "platformMediaId":"1002082018528913724_257778641",
         "mediaLink":"https://scontent.cdninstagram.com/hphotos-xfa1/t51.2885-15/e15/11419001_1617064188552639_1753759155_n.jpg",
         "description":"https://igcdn-photos-f-a.akamaihd.net/hphotos-ak-xaf1/t51.2885-19/11236209_1572730709661197_1916407864_a.jpg"
      }
   ]
}
